Benjamini Mpinga - R Programming: World pupulation and most popular countries.
…
Finally a graph above demonstrate the world population by continent, the most to miner populated continent on Earth. Asia is leading the chart followed by Africa.

ASIA

The graphs below show Asian continent population from high to low level, graph number one is not well arranged, sample were entered to the database the way they were collected, in fact without consideration of proper arrangement from the highest to the lowest number, it shows the original data, so we had to arranged it in an order that can be proper viewed In graph number two in ascending order. We use the function reorder() of the package tidyverse.

Therefor The Red graph shows countries with population more than Fifty millions, The Blue graph shows countries with population between Ten to Fifty millions, While the green graph shows the countries with less than Ten millions.

The first graph doesn’t allow eyes of the reader to relax when reading, So we have to generate another graph by flip our graph so that the names of the countries can be well viewed, we use the function Coord_flip() of the package tidyverse.

asia

# A tibble: 50 x 3
   country     continent population
   <chr>       <chr>          <dbl>
 1 Afghanistan Asia        41128771
 2 Armenia     Asia         2780469
 3 Azerbaijan  Asia        10358074
 4 Bahrain     Asia         1472233
 5 Bangladesh  Asia       171186372
 6 Bhutan      Asia          782455
 7 Brunei      Asia          449002
 8 Cambodia    Asia        16767842
 9 China       Asia      1425887337
10 Georgia     Asia         3744385
# i 40 more rows
…
AFRICA

The graphs below show Africa continent population from high to low level, graph number one is not well arranged, sample were entered to the database the way they were collected, in fact without consideration of proper arrangement from the highest to the lowest number, it shows the original data, so we had to arranged it in an order that can be proper viewed In graph number two in ascending order. We use the function reorder() of the package tidyverse.

Therefor The Red graph shows countries with population more than Fifty millions, The Blue graph shows countries with population between Ten to Fifty millions, While the green graph shows the countries with less than Ten millions.

The first graph doesn’t allow eyes of the reader to relax when reading, So we have to generate another graph by flip our graph so that the names of the countries can be well viewed, we use the function Coord_flip() of the package tidyverse.

africa

# A tibble: 57 x 3
   country                  continent population
   <chr>                    <chr>          <dbl>
 1 Algeria                  Africa      44903225
 2 Angola                   Africa      35588987
 3 Benin                    Africa      13352864
 4 Botswana                 Africa       2630296
 5 Burkina Faso             Africa      22673762
 6 Burundi                  Africa      12889576
 7 Cameroon                 Africa      27914536
 8 Cape Verde               Africa        593149
 9 Central African Republic Africa       5579144
10 Chad                     Africa      17723315
# i 47 more rows
…
NORTH AMERICA

The graphs below show North America continent population from high to low level, graph number one is not well arranged, sample were entered to the database the way they were collected, in fact without consideration of proper arrangement from the highest to the lowest number, it shows the original data, so we had to arranged it in an order that can be proper viewed In graph number two in ascending order. We use the function reorder() of the package tidyverse.

Therefor The Red graph shows countries with population more than Fifty millions, The Blue graph shows countries with population between Ten to Fifty millions, While the green graph shows the countries with less than Ten millions.

The first graph doesn’t allow eyes of the reader to relax when reading, So we have to generate another graph by flip our graph so that the names of the countries can be well viewed, we use the function Coord_flip() of the package tidyverse.

notame

# A tibble: 40 x 3
   country                continent     population
   <chr>                  <chr>              <dbl>
 1 Anguilla               North America      15857
 2 Antigua and Barbuda    North America      93763
 3 Aruba                  North America     106445
 4 Bahamas                North America     409984
 5 Barbados               North America     281635
 6 Belize                 North America     405272
 7 Bermuda                North America      64184
 8 British Virgin Islands North America      31305
 9 Canada                 North America   38454327
10 Cayman Islands         North America      68706
# i 30 more rows
…
EUROPE

The graphs below show Europe continent population from high to low level, graph number one is not well arranged, sample were entered to the database the way they were collected, in fact without consideration of proper arrangement from the highest to the lowest number, it shows the original data, so we had to arranged it in an order that can be proper viewed In graph number two in ascending order. We use the function reorder() of the package tidyverse.

Therefor The Red graph shows countries with population more than Fifty millions, The Blue graph shows countries with population between Ten to Fifty millions, While the green graph shows the countries with less than Ten millions.

The first graph doesn’t allow eyes of the reader to relax when reading, So we have to generate another graph by flip our graph so that the names of the countries can be well viewed, we use the function Coord_flip() of the package tidyverse.

europe

# A tibble: 50 x 3
   country                continent population
   <chr>                  <chr>          <dbl>
 1 Albania                Europe       2842321
 2 Andorra                Europe         79824
 3 Austria                Europe       8939617
 4 Belarus                Europe       9534954
 5 Belgium                Europe      11655930
 6 Bosnia and Herzegovina Europe       3233526
 7 Bulgaria               Europe       6781953
 8 Croatia                Europe       4030358
 9 Cyprus                 Europe       1251488
10 Czech Republic         Europe      10493986
# i 40 more rows
…
OCEANIA.

The graphs below show Oceania continent population from high to low level, graph number one is not well arranged, sample were entered to the database the way they were collected, in fact without consideration of proper arrangement from the highest to the lowest number, it shows the original data, so we had to arranged it in an order that can be proper viewed In graph number two in ascending order. We use the function reorder() of the package tidyverse.

Therefor The Red graph shows countries with population more than Fifty millions, The Blue graph shows countries with population between Ten to Fifty millions, While the green graph shows the countries with less than Ten millions.

The first graph doesn’t allow eyes of the reader to relax when reading, So we have to generate another graph by flip our graph so that the names of the countries can be well viewed, we use the function Coord_flip() of the package tidyverse.

ocean

# A tibble: 23 x 3
   country          continent population
   <chr>            <chr>          <dbl>
 1 American Samoa   Oceania        44273
 2 Australia        Oceania     26177413
 3 Cook Islands     Oceania        17011
 4 Fiji             Oceania       929766
 5 French Polynesia Oceania       306279
 6 Guam             Oceania       171774
 7 Kiribati         Oceania       131232
 8 Marshall Islands Oceania        41569
 9 Micronesia       Oceania       114164
10 Nauru            Oceania        12668
# i 13 more rows
…
