Benjamini Mpinga - R Programming: Biginner’s introduction Leson 1.
…
the above data frame are showing the importation of data from your directory into R, using csv extension.

read_xlsx("e:/MY_STAFFS/Minning__Folder/Blogs/teneson/posts/R-introduction/BUDGET DAUDI HEALTH CENTRE 2022.xlsx")

New names:
* `` -> `...10`

# A tibble: 32 x 10
   TARGET ACTIVITY `GSF CODE` `Unit of measure` Quantity frequencer `unit price`
   <chr>  <chr>    <chr>      <chr>                <dbl>      <dbl>        <dbl>
 1 Short~ To supp~ Medical e~ Kits                     6          5        52500
 2 <NA>   <NA>     Drugs and~ Kits                     6          5       175000
 3 <NA>   <NA>     Hospital ~ Kits                     6          5        35000
 4 <NA>   <NA>     PPMof med~ Kits                     6          5        50000
 5 <NA>   <NA>     Dental eq~ Kits                     6          5        35000
 6 <NA>   <NA>     Laborator~ Kits                     6          5        35000
 7 <NA>   <NA>     <NA>       <NA>                    NA         NA           NA
 8 Organ~ To prov~ Water cha~ bills                   64         12         2500
 9 <NA>   <NA>     Electrici~ bills                 1200          6          400
10 <NA>   <NA>     Per diem   person                   5          5        80000
# i 22 more rows
# i 3 more variables: TOTAL <dbl>, `Source of Fund` <chr>, ...10 <dbl>
…
